Tidy Approaches to Missing Data
…
To look at these questions I am going to discuss some tools that  I have built with Di Cook and Miles McBain, to facilitate the highlighting and exploration of missing values.

I'll then move discuss the way that we can handle and manipulate missing data.

I will then move to discuss the problems with current methods for exploring and visualising missings, and what we can do about it.

---
class: inverse, middle, center
# Back to the beginning

```
## # A tibble: 155 x 5
##                 ymd_hm     time gust_kmh air_temp rain_trace
##                 <dttm>   <time>    <int>    <dbl>      <dbl>
##  1 2017-06-01 14:30:00 14:30:00       19     13.1          0
##  2 2017-06-01 14:00:00 14:00:00       19     13.1          0
##  3 2017-06-01 13:30:00 13:30:00       13     13.3          0
##  4 2017-06-01 13:00:00 13:00:00       15     13.4          0
##  5 2017-06-01 12:30:00 12:30:00       13     13.2          0
##  6 2017-06-01 12:00:00 12:00:00       15     12.5          0
##  7 2017-06-01 11:30:00 11:30:00       20     12.2          0
##  8 2017-06-01 11:00:00 11:00:00        0     11.8          0
##  9 2017-06-01 10:30:00 10:30:00        7     11.2          0
## 10 2017-06-01 10:00:00 10:00:00       13     10.9          0
## # ... with 145 more rows
```
…
<img src="2017-06-02-tidy-miss_files/figure-html/ggmissing-theme-1.png" width="70%" style="display: block; margin: auto;" />

---
class: inverse, middle, center
# The shadowlands

### Representing Missing values  

---
## The shadowlands 

`as_shadow(melb_data)`

```
## # A tibble: 21 x 5
##    ymd_hm_NA time_NA gust_kmh_NA air_temp_NA rain_trace_NA
##       <fctr>  <fctr>      <fctr>      <fctr>        <fctr>
##  1       !NA     !NA         !NA         !NA           !NA
##  2       !NA     !NA         !NA         !NA           !NA
##  3       !NA     !NA         !NA         !NA           !NA
##  4       !NA     !NA         !NA         !NA           !NA
##  5       !NA     !NA         !NA         !NA           !NA
##  6       !NA     !NA         !NA         !NA           !NA
##  7       !NA     !NA         !NA         !NA           !NA
##  8       !NA     !NA         !NA          NA           !NA
##  9       !NA     !NA         !NA          NA           !NA
## 10       !NA     !NA         !NA          NA           !NA
## # ... with 11 more rows
```
…
---

## Summaries

**for each case**

```r
miss_case_summary(melb_data)
```

```
## # A tibble: 155 x 3
##     case n_missing percent
##    <int>     <int>   <dbl>
##  1     1         0       0
##  2     2         0       0
##  3     3         0       0
##  4     4         0       0
##  5     5         0       0
##  6     6         0       0
##  7     7         0       0
##  8     8         0       0
##  9     9         0       0
## 10    10         0       0
## # ... with 145 more rows
```
…
